<svg width="317" height="82" viewBox="0 0 317 82" fill="none" xmlns="http://www.w3.org/2000/svg">
<path fill-rule="evenodd" clip-rule="evenodd" d="M11.8741 68.3864V33.4542H34.7884C37.5984 33.4542 39.7545 32.7905 41.2569 31.4607C42.7604 30.1331 43.5124 28.3601 43.5124 26.1461V25.998C43.5124 23.5373 42.7236 21.691 41.1464 20.4606C39.5705 19.2303 37.3765 18.6151 34.5676 18.6151H23.2588H11.8741V8.35342H35.5288C41.6886 8.35342 46.4815 9.85404 49.9063 12.8563C53.3311 15.8583 55.0424 20.0421 55.0424 25.4065V25.5546C55.0424 29.7387 54.0206 33.1472 51.9759 35.7809C49.9313 38.4131 47.2577 40.3452 43.9553 41.5754L56.5955 60.0331H43.2897L32.2025 43.4956H23.2588V68.3864V81.219L33.7363 68.3864H68.4695V0H0V68.3864H11.8741Z" fill="#334480"/>
<path d="M109.467 45.6932C109.467 45.8113 109.408 46.6376 109.29 48.1723H85.267C85.7 50.14 86.7228 51.694 88.3363 52.8353C89.9498 53.9766 91.9567 54.5471 94.3569 54.5471C96.0096 54.5471 97.4654 54.311 98.7248 53.8387C100.023 53.3274 101.224 52.5402 102.325 51.4777L107.224 56.79C104.234 60.2135 99.8661 61.9252 94.1208 61.9252C90.5401 61.9252 87.3721 61.2368 84.6177 59.8593C81.8634 58.4427 79.7384 56.4949 78.243 54.0158C76.7475 51.5368 76 48.7234 76 45.5752C76 42.4665 76.7281 39.6726 78.1839 37.1936C79.6794 34.6752 81.7056 32.7273 84.2636 31.35C86.8607 29.9334 89.7529 29.2251 92.9403 29.2251C96.0488 29.2251 98.8627 29.8941 101.381 31.232C103.899 32.5699 105.867 34.4981 107.283 37.0165C108.739 39.4956 109.467 42.3878 109.467 45.6932ZM92.9993 36.1901C90.9136 36.1901 89.1627 36.7804 87.7461 37.9609C86.3295 39.1414 85.4639 40.7548 85.1489 42.801H100.791C100.476 40.7941 99.6102 39.2004 98.1936 38.0199C96.777 36.8001 95.0454 36.1901 92.9993 36.1901ZM124.392 33.8881C125.494 32.3535 126.97 31.1927 128.819 30.4056C130.708 29.6186 132.873 29.2251 135.312 29.2251V37.7248C134.289 37.6461 133.6 37.6067 133.246 37.6067C130.61 37.6067 128.544 38.3544 127.049 39.8497C125.554 41.3057 124.806 43.5093 124.806 46.4606V61.453H115.598V29.6973H124.392V33.8881ZM173.01 29.6973V61.453H164.274V57.6754C163.054 59.0528 161.598 60.1153 159.906 60.8628C158.214 61.5711 156.384 61.9252 154.416 61.9252C150.246 61.9252 146.94 60.7249 144.5 58.3247C142.061 55.9245 140.841 52.3631 140.841 47.6411V29.6973H150.049V46.2835C150.049 51.3989 152.193 53.9568 156.482 53.9568C158.686 53.9568 160.457 53.2485 161.795 51.8319C163.133 50.3761 163.802 48.2313 163.802 45.3981V29.6973H173.01ZM181.54 29.6973H190.748V61.453H181.54V29.6973ZM186.144 25.2704C184.452 25.2704 183.075 24.7785 182.013 23.7948C180.95 22.8111 180.419 21.5912 180.419 20.1352C180.419 18.6793 180.95 17.4594 182.013 16.4756C183.075 15.4919 184.452 15 186.144 15C187.836 15 189.214 15.4722 190.276 16.4166C191.339 17.361 191.87 18.5415 191.87 19.9581C191.87 21.4928 191.339 22.7717 190.276 23.7948C189.214 24.7785 187.836 25.2704 186.144 25.2704ZM219.776 59.9184C218.871 60.5875 217.749 61.0989 216.412 61.453C215.113 61.768 213.736 61.9252 212.28 61.9252C208.502 61.9252 205.57 60.961 203.485 59.033C201.439 57.105 200.416 54.2718 200.416 50.5333V37.4887H195.517V30.4056H200.416V22.6733H209.624V30.4056H217.533V37.4887H209.624V50.4153C209.624 51.753 209.958 52.7961 210.627 53.5436C211.335 54.2519 212.319 54.6061 213.578 54.6061C215.034 54.6061 216.274 54.2127 217.297 53.4256L219.776 59.9184ZM224.945 29.6973H234.153V61.453H224.945V29.6973ZM229.549 25.2704C227.856 25.2704 226.479 24.7785 225.417 23.7948C224.355 22.8111 223.823 21.5912 223.823 20.1352C223.823 18.6793 224.355 17.4594 225.417 16.4756C226.479 15.4919 227.856 15 229.549 15C231.241 15 232.618 15.4722 233.681 16.4166C234.743 17.361 235.274 18.5415 235.274 19.9581C235.274 21.4928 234.743 22.7717 233.681 23.7948C232.618 24.7785 231.241 25.2704 229.549 25.2704ZM262 29.2251C265.935 29.2251 269.102 30.4056 271.503 32.7667C273.943 35.1277 275.162 38.6299 275.162 43.2732V61.453H265.954V44.6898C265.954 42.1714 265.404 40.3022 264.302 39.0824C263.2 37.8232 261.606 37.1936 259.521 37.1936C257.199 37.1936 255.35 37.9216 253.972 39.3775C252.595 40.7941 251.906 42.919 251.906 45.7523V61.453H242.698V29.6973H251.493V33.4159C252.713 32.078 254.228 31.0549 256.038 30.3466C257.848 29.599 259.835 29.2251 262 29.2251ZM316.614 29.6973V56.1407C316.614 61.9644 315.099 66.2931 312.069 69.1263C309.039 71.9596 304.612 73.3762 298.789 73.3762C295.719 73.3762 292.807 73.0022 290.053 72.2547C287.298 71.5072 285.016 70.4249 283.206 69.0083L286.865 62.3974C288.203 63.4991 289.895 64.3651 291.942 64.9946C293.988 65.6637 296.034 65.998 298.08 65.998C301.268 65.998 303.609 65.2699 305.104 63.814C306.639 62.3974 307.406 60.2333 307.406 57.3212V55.9637C305.006 58.6 301.661 59.9184 297.372 59.9184C294.46 59.9184 291.784 59.2889 289.344 58.0296C286.944 56.731 285.036 54.921 283.619 52.5992C282.202 50.2774 281.494 47.6019 281.494 44.5718C281.494 41.5418 282.202 38.866 283.619 36.5443C285.036 34.2226 286.944 32.4322 289.344 31.173C291.784 29.8744 294.46 29.2251 297.372 29.2251C301.976 29.2251 305.478 30.7401 307.878 33.7701V29.6973H316.614ZM299.202 52.3631C301.641 52.3631 303.629 51.6548 305.163 50.2382C306.737 48.7824 307.524 46.8936 307.524 44.5718C307.524 42.2501 306.737 40.3809 305.163 38.9643C303.629 37.5084 301.641 36.7804 299.202 36.7804C296.762 36.7804 294.755 37.5084 293.181 38.9643C291.607 40.3809 290.82 42.2501 290.82 44.5718C290.82 46.8936 291.607 48.7824 293.181 50.2382C294.755 51.6548 296.762 52.3631 299.202 52.3631Z" fill="#08152D"/>
</svg>
