<svg width="49" height="47" viewBox="0 0 49 47" fill="none" xmlns="http://www.w3.org/2000/svg">
<path d="M3.8454 26.0637H8.97267V46.5728H3.8454V26.0637Z" fill="#C2C2C2"/>
<path d="M8.97276 46.9999H3.84549C3.73217 46.9999 3.62349 46.9549 3.54336 46.8747C3.46323 46.7946 3.41821 46.6859 3.41821 46.5726V26.0635C3.41821 25.9502 3.46323 25.8415 3.54336 25.7614C3.62349 25.6812 3.73217 25.6362 3.84549 25.6362H8.97276C9.08608 25.6362 9.19476 25.6812 9.27489 25.7614C9.35502 25.8415 9.40003 25.9502 9.40003 26.0635V46.5726C9.40003 46.6859 9.35502 46.7946 9.27489 46.8747C9.19476 46.9549 9.08608 46.9999 8.97276 46.9999ZM4.27276 46.1453H8.54549V26.4908H4.27276V46.1453Z" fill="#212A41"/>
<path d="M24.3546 8.9729H32.0455C32.7254 8.9729 33.3775 9.243 33.8582 9.72377C34.339 10.2045 34.6091 10.8566 34.6091 11.5365V31.1911C34.6091 32.0976 34.249 32.9671 33.6079 33.6081C32.9669 34.2491 32.0975 34.6093 31.1909 34.6093H27.7727V11.5365C27.7727 10.8566 27.5026 10.2045 27.0219 9.72377C26.5411 9.243 25.889 8.9729 25.2091 8.9729H24.3546Z" fill="#E0C8A4"/>
<path d="M31.1909 35.0363H27.7727C27.6594 35.0363 27.5507 34.9913 27.4706 34.9112C27.3904 34.831 27.3454 34.7224 27.3454 34.6091V11.5363C27.3454 10.9697 27.1203 10.4263 26.7197 10.0257C26.3191 9.62504 25.7757 9.39996 25.2091 9.39996H24.3545C24.2412 9.39996 24.1325 9.35494 24.0524 9.27481C23.9723 9.19468 23.9272 9.086 23.9272 8.97268C23.9272 8.85936 23.9723 8.75068 24.0524 8.67056C24.1325 8.59043 24.2412 8.54541 24.3545 8.54541H32.0454C32.8387 8.54541 33.5994 8.86052 34.1603 9.42143C34.7212 9.98233 35.0363 10.7431 35.0363 11.5363V31.1909C35.0352 32.2104 34.6297 33.1878 33.9088 33.9088C33.1879 34.6297 32.2104 35.0352 31.1909 35.0363ZM28.2 34.1818H31.1909C31.9841 34.1818 32.7449 33.8667 33.3058 33.3058C33.8667 32.7449 34.1818 31.9841 34.1818 31.1909V11.5363C34.1818 10.9697 33.9567 10.4263 33.5561 10.0257C33.1554 9.62504 32.612 9.39996 32.0454 9.39996H27.3001C27.5852 9.67788 27.8118 10.0101 27.9663 10.377C28.1209 10.744 28.2003 11.1382 28.2 11.5363V34.1818Z" fill="#212A41"/>
<path d="M27.7728 26.0637H8.97278V46.5728H27.7728V34.6092H31.191C32.0975 34.6092 32.9669 34.249 33.608 33.608C34.249 32.967 34.6091 32.0976 34.6091 31.191V26.0637H27.7728Z" fill="#E0E0E0"/>
<path d="M27.7727 46.9999H8.97274C8.85942 46.9999 8.75075 46.9549 8.67062 46.8747C8.59049 46.7946 8.54547 46.6859 8.54547 46.5726V26.0635C8.54547 25.9502 8.59049 25.8415 8.67062 25.7614C8.75075 25.6812 8.85942 25.6362 8.97274 25.6362H34.6091C34.7224 25.6362 34.8311 25.6812 34.9112 25.7614C34.9914 25.8415 35.0364 25.9502 35.0364 26.0635V31.1908C35.0353 32.2103 34.6297 33.1878 33.9088 33.9087C33.1879 34.6296 32.2105 35.0351 31.1909 35.0362H28.2V46.5726C28.2 46.6859 28.155 46.7946 28.0749 46.8747C27.9947 46.9549 27.8861 46.9999 27.7727 46.9999ZM9.40002 46.1453H27.3455V34.609C27.3455 34.4956 27.3905 34.387 27.4706 34.3068C27.5507 34.2267 27.6594 34.1817 27.7727 34.1817H31.1909C31.9842 34.1817 32.7449 33.8666 33.3058 33.3057C33.8667 32.7448 34.1818 31.984 34.1818 31.1908V26.4908H9.40002V46.1453Z" fill="#212A41"/>
<path d="M27.7727 35.0362C27.6594 35.0362 27.5507 34.9911 27.4706 34.911C27.3905 34.8309 27.3455 34.7222 27.3455 34.6089V31.1907C27.3455 31.0774 27.3905 30.9687 27.4706 30.8886C27.5507 30.8084 27.6594 30.7634 27.7727 30.7634C27.8861 30.7634 27.9947 30.8084 28.0749 30.8886C28.155 30.9687 28.2 31.0774 28.2 31.1907V34.6089C28.2 34.7222 28.155 34.8309 28.0749 34.911C27.9947 34.9911 27.8861 35.0362 27.7727 35.0362Z" fill="#212A41"/>
<path d="M25.2091 14.1002C26.6249 14.1002 27.7727 12.9524 27.7727 11.5365C27.7727 10.1207 26.6249 8.9729 25.2091 8.9729C23.7932 8.9729 22.6454 10.1207 22.6454 11.5365C22.6454 12.9524 23.7932 14.1002 25.2091 14.1002Z" fill="#E0C8A4"/>
<path d="M25.2091 14.5272C24.6176 14.5272 24.0393 14.3518 23.5475 14.0232C23.0556 13.6945 22.6722 13.2274 22.4459 12.6809C22.2195 12.1344 22.1603 11.533 22.2757 10.9528C22.3911 10.3726 22.6759 9.83972 23.0942 9.42143C23.5125 9.00314 24.0454 8.71829 24.6256 8.60288C25.2058 8.48748 25.8072 8.54671 26.3537 8.77308C26.9002 8.99946 27.3673 9.38281 27.696 9.87466C28.0246 10.3665 28.2 10.9448 28.2 11.5363C28.2 12.3296 27.8849 13.0903 27.324 13.6512C26.7631 14.2121 26.0024 14.5272 25.2091 14.5272ZM25.2091 9.39996C24.7866 9.39996 24.3735 9.52525 24.0222 9.76C23.6709 9.99475 23.3971 10.3284 23.2354 10.7188C23.0737 11.1091 23.0314 11.5387 23.1138 11.9531C23.1962 12.3675 23.3997 12.7482 23.6985 13.047C23.9973 13.3457 24.3779 13.5492 24.7923 13.6316C25.2067 13.7141 25.6363 13.6718 26.0267 13.5101C26.417 13.3484 26.7507 13.0745 26.9854 12.7232C27.2202 12.3719 27.3455 11.9589 27.3455 11.5363C27.3455 10.9697 27.1204 10.4263 26.7198 10.0257C26.3191 9.62504 25.7757 9.39996 25.2091 9.39996Z" fill="#212A41"/>
<path d="M20.0818 2.13647H13.2454C11.8856 2.13647 10.5814 2.67667 9.61989 3.63822C8.65833 4.59977 8.11814 5.90391 8.11814 7.26375V8.97284C7.43822 8.97284 6.78615 9.24294 6.30538 9.72371C5.8246 10.2045 5.5545 10.8566 5.5545 11.5365C5.5545 12.2164 5.8246 12.8685 6.30538 13.3492C6.78615 13.83 7.43822 14.1001 8.11814 14.1001V15.8092C8.11814 17.169 8.65833 18.4732 9.61989 19.4347C10.5814 20.3963 11.8856 20.9365 13.2454 20.9365H20.0818C21.4416 20.9365 22.7458 20.3963 23.7073 19.4347C24.6689 18.4732 25.2091 17.169 25.2091 15.8092V7.26375C25.2091 5.90391 24.6689 4.59977 23.7073 3.63822C22.7458 2.67667 21.4416 2.13647 20.0818 2.13647Z" fill="#E0C8A4"/>
<path d="M20.0818 21.3635H13.2455C11.7728 21.3617 10.3611 20.7759 9.31979 19.7346C8.2785 18.6934 7.69271 17.2816 7.6909 15.809V14.4964C6.97919 14.3935 6.32837 14.0377 5.85766 13.494C5.38695 12.9504 5.12787 12.2554 5.12787 11.5363C5.12787 10.8172 5.38695 10.1221 5.85766 9.57848C6.32837 9.03484 6.97919 8.67899 7.6909 8.57611V7.26353C7.69271 5.79093 8.2785 4.37916 9.31979 3.33787C10.3611 2.29658 11.7728 1.71079 13.2455 1.70898H20.0818C21.5544 1.71079 22.9662 2.29658 24.0075 3.33787C25.0488 4.37916 25.6346 5.79093 25.6364 7.26353V15.809C25.6346 17.2816 25.0488 18.6934 24.0075 19.7346C22.9662 20.7759 21.5544 21.3617 20.0818 21.3635ZM13.2455 2.56353C11.9993 2.56489 10.8047 3.0605 9.92355 3.94163C9.04242 4.82275 8.54681 6.01743 8.54545 7.26353V8.97262C8.54545 9.08594 8.50043 9.19462 8.4203 9.27475C8.34018 9.35488 8.2315 9.3999 8.11818 9.3999C7.55158 9.3999 7.00819 9.62498 6.60754 10.0256C6.20689 10.4263 5.98181 10.9697 5.98181 11.5363C5.98181 12.1029 6.20689 12.6463 6.60754 13.0469C7.00819 13.4475 7.55158 13.6726 8.11818 13.6726C8.2315 13.6726 8.34018 13.7176 8.4203 13.7978C8.50043 13.8779 8.54545 13.9866 8.54545 14.0999V15.809C8.54681 17.0551 9.04242 18.2498 9.92355 19.1309C10.8047 20.012 11.9993 20.5076 13.2455 20.509H20.0818C21.3279 20.5076 22.5226 20.012 23.4037 19.1309C24.2848 18.2498 24.7805 17.0551 24.7818 15.809V7.26353C24.7805 6.01743 24.2848 4.82275 23.4037 3.94163C22.5226 3.0605 21.3279 2.56489 20.0818 2.56353H13.2455Z" fill="#212A41"/>
<path d="M13.2455 19.6546C12.2259 19.6534 11.2485 19.2479 10.5276 18.527C9.80666 17.8061 9.40116 16.8286 9.40002 15.8091C9.40002 15.6958 9.44504 15.5871 9.52517 15.507C9.6053 15.4269 9.71398 15.3818 9.8273 15.3818C9.94062 15.3818 10.0493 15.4269 10.1294 15.507C10.2096 15.5871 10.2546 15.6958 10.2546 15.8091C10.2546 16.6023 10.5697 17.3631 11.1306 17.924C11.6915 18.4849 12.4522 18.8 13.2455 18.8C13.3588 18.8 13.4675 18.845 13.5476 18.9252C13.6277 19.0053 13.6728 19.114 13.6728 19.2273C13.6728 19.3406 13.6277 19.4493 13.5476 19.5294C13.4675 19.6095 13.3588 19.6546 13.2455 19.6546Z" fill="#FEE6C2"/>
<path d="M20.0819 19.6546C19.9686 19.6546 19.8599 19.6095 19.7797 19.5294C19.6996 19.4493 19.6546 19.3406 19.6546 19.2273C19.6546 19.114 19.6996 19.0053 19.7797 18.9252C19.8599 18.845 19.9686 18.8 20.0819 18.8C20.8751 18.8 21.6359 18.4849 22.1968 17.924C22.7577 17.3631 23.0728 16.6023 23.0728 15.8091V8.11819C23.0728 8.00487 23.1178 7.89619 23.1979 7.81606C23.2781 7.73593 23.3867 7.69092 23.5001 7.69092C23.6134 7.69092 23.7221 7.73593 23.8022 7.81606C23.8823 7.89619 23.9273 8.00487 23.9273 8.11819V15.8091C23.9262 16.8286 23.5207 17.8061 22.7998 18.527C22.0789 19.2479 21.1014 19.6534 20.0819 19.6546Z" fill="#C2AA86"/>
<path d="M13.2454 20.9363H20.0818V26.0636H13.2454V20.9363Z" fill="#E8D2A8"/>
<path d="M20.0818 26.4909H13.2454C13.1321 26.4909 13.0235 26.4458 12.9433 26.3657C12.8632 26.2856 12.8182 26.1769 12.8182 26.0636V20.9363C12.8182 20.823 12.8632 20.7143 12.9433 20.6342C13.0235 20.554 13.1321 20.509 13.2454 20.509H20.0818C20.1951 20.509 20.3038 20.554 20.3839 20.6342C20.4641 20.7143 20.5091 20.823 20.5091 20.9363V26.0636C20.5091 26.1769 20.4641 26.2856 20.3839 26.3657C20.3038 26.4458 20.1951 26.4909 20.0818 26.4909ZM13.6727 25.6363H19.6545V21.3636H13.6727V25.6363Z" fill="#212A41"/>
<path d="M11.5363 0.42749H26.0636V2.99113C26.0636 3.89769 25.7035 4.76711 25.0625 5.40815C24.4214 6.04918 23.552 6.40931 22.6454 6.40931H8.11816V3.84567C8.11816 2.93911 8.47829 2.06969 9.11933 1.42865C9.76036 0.787619 10.6298 0.42749 11.5363 0.42749Z" fill="#6C696F"/>
<path d="M22.6455 6.83636H8.11819C8.00487 6.83636 7.89619 6.79135 7.81606 6.71122C7.73593 6.63109 7.69092 6.52241 7.69092 6.40909V3.84545C7.69205 2.82592 8.09756 1.84847 8.81847 1.12756C9.53939 0.406639 10.5168 0.00113093 11.5364 0H26.0636C26.177 0 26.2856 0.0450162 26.3658 0.125145C26.4459 0.205275 26.4909 0.313953 26.4909 0.427273V2.99091C26.4898 4.01044 26.0843 4.98789 25.3634 5.70881C24.6424 6.42973 23.665 6.83523 22.6455 6.83636ZM8.54546 5.98182H22.6455C23.4387 5.98182 24.1995 5.66671 24.7604 5.1058C25.3213 4.5449 25.6364 3.78415 25.6364 2.99091V0.854546H11.5364C10.7431 0.854546 9.98239 1.16966 9.42148 1.73056C8.86058 2.29147 8.54546 3.05222 8.54546 3.84545V5.98182Z" fill="#212A41"/>
<path d="M22.6455 5.12717C22.5322 5.12717 22.4235 5.08215 22.3433 5.00202C22.2632 4.92189 22.2182 4.81321 22.2182 4.69989C22.2182 4.58657 22.2632 4.4779 22.3433 4.39777C22.4235 4.31764 22.5322 4.27262 22.6455 4.27262C22.9854 4.27262 23.3115 4.13757 23.5519 3.89719C23.7922 3.6568 23.9273 3.33076 23.9273 2.9908V2.13626C23.9273 2.02294 23.9723 1.91426 24.0524 1.83413C24.1326 1.754 24.2412 1.70898 24.3546 1.70898C24.4679 1.70898 24.5766 1.754 24.6567 1.83413C24.7368 1.91426 24.7818 2.02294 24.7818 2.13626V2.9908C24.7818 3.5574 24.5568 4.10079 24.1561 4.50144C23.7555 4.90209 23.2121 5.12717 22.6455 5.12717Z" fill="#4E4B51"/>
<path d="M8.11815 2.13647H10.6818V5.55466C10.6818 6.46122 10.3217 7.33064 9.68062 7.97168C9.03959 8.61271 8.17016 8.97284 7.2636 8.97284H6.40906V3.84557C6.40906 3.39229 6.58912 2.95757 6.90964 2.63706C7.23016 2.31654 7.66487 2.13647 8.11815 2.13647Z" fill="#4E4B51"/>
<path d="M7.26363 9.39989H6.40908C6.29576 9.39989 6.18709 9.35488 6.10696 9.27475C6.02683 9.19462 5.98181 9.08594 5.98181 8.97262V3.84535C5.98181 3.27875 6.20689 2.73536 6.60754 2.33471C7.00818 1.93406 7.55158 1.70898 8.11818 1.70898H10.6818C10.7951 1.70898 10.9038 1.754 10.9839 1.83413C11.0641 1.91426 11.1091 2.02294 11.1091 2.13626V5.55444C11.108 6.57397 10.7024 7.55142 9.98153 8.27234C9.26061 8.99326 8.28316 9.39876 7.26363 9.39989ZM6.83636 8.54535H7.26363C8.05687 8.54535 8.81762 8.23024 9.37852 7.66933C9.93943 7.10843 10.2545 6.34768 10.2545 5.55444V2.56353H8.11818C7.77822 2.56353 7.45218 2.69858 7.21179 2.93897C6.97141 3.17935 6.83636 3.50539 6.83636 3.84535V8.54535Z" fill="#212A41"/>
<path d="M8.11819 7.46107C8.00487 7.46107 7.89619 7.41605 7.81606 7.33592C7.73593 7.25579 7.69092 7.14711 7.69092 7.0338V3.84549C7.69092 3.73217 7.73593 3.62349 7.81606 3.54336C7.89619 3.46323 8.00487 3.41821 8.11819 3.41821C8.23151 3.41821 8.34019 3.46323 8.42032 3.54336C8.50045 3.62349 8.54546 3.73217 8.54546 3.84549V7.0338C8.54546 7.14711 8.50045 7.25579 8.42032 7.33592C8.34019 7.41605 8.23151 7.46107 8.11819 7.46107Z" fill="#6C696F"/>
<path d="M8.1182 14.5269C7.52662 14.5269 6.94832 14.3515 6.45643 14.0229C5.96454 13.6942 5.58115 13.2271 5.35476 12.6806C5.12837 12.134 5.06914 11.5326 5.18456 10.9524C5.29998 10.3722 5.58487 9.83924 6.0032 9.42095C6.57306 8.87714 7.3305 8.57373 8.1182 8.57373C8.9059 8.57373 9.66334 8.87714 10.2332 9.42095C10.311 9.50154 10.3541 9.60947 10.3531 9.7215C10.3522 9.83353 10.3072 9.94069 10.228 10.0199C10.1488 10.0991 10.0416 10.1441 9.92958 10.145C9.81755 10.146 9.70962 10.1029 9.62904 10.0251C9.22185 9.63686 8.68082 9.42026 8.1182 9.42026C7.55558 9.42026 7.01455 9.63686 6.60737 10.0251C6.40893 10.2235 6.25151 10.459 6.14411 10.7183C6.03672 10.9775 5.98144 11.2554 5.98144 11.536C5.98144 11.8166 6.03672 12.0944 6.14411 12.3536C6.25151 12.6129 6.40893 12.8484 6.60737 13.0468C7.01455 13.435 7.55558 13.6516 8.1182 13.6516C8.68082 13.6516 9.22185 13.435 9.62904 13.0468C9.66845 13.006 9.7156 12.9734 9.76773 12.951C9.81986 12.9286 9.87593 12.9169 9.93266 12.9164C9.98939 12.9159 10.0457 12.9267 10.0982 12.9482C10.1507 12.9697 10.1984 13.0014 10.2385 13.0415C10.2786 13.0816 10.3103 13.1293 10.3318 13.1818C10.3533 13.2343 10.3641 13.2906 10.3636 13.3473C10.3631 13.4041 10.3513 13.4601 10.329 13.5123C10.3066 13.5644 10.274 13.6115 10.2332 13.651C9.9561 13.9296 9.62648 14.1504 9.26344 14.3008C8.9004 14.4511 8.51114 14.528 8.1182 14.5269Z" fill="#212A41"/>
<path d="M25.2091 26.0636H21.7909L23.5 23.5L25.2091 26.0636Z" fill="#E0E0E0"/>
<path d="M25.2091 26.491H21.7909C21.7137 26.4909 21.6378 26.4699 21.5715 26.4302C21.5052 26.3905 21.451 26.3335 21.4145 26.2654C21.378 26.1973 21.3607 26.1205 21.3644 26.0433C21.3681 25.9661 21.3926 25.8913 21.4355 25.827L23.1445 23.2634C23.1857 23.2079 23.2393 23.1628 23.3011 23.1317C23.3628 23.1007 23.4309 23.0845 23.5 23.0845C23.5691 23.0845 23.6373 23.1007 23.699 23.1317C23.7607 23.1628 23.8143 23.2079 23.8555 23.2634L25.5646 25.827C25.6074 25.8913 25.632 25.9661 25.6357 26.0433C25.6394 26.1205 25.6221 26.1973 25.5856 26.2654C25.5491 26.3335 25.4948 26.3905 25.4285 26.4302C25.3622 26.4699 25.2864 26.4909 25.2091 26.491ZM22.5891 25.6364H24.411L23.5 24.2692L22.5891 25.6364Z" fill="#212A41"/>
<path d="M21.7909 26.0636H20.0818V23.5H23.5L21.7909 26.0636Z" fill="#C2C2C2"/>
<path d="M21.791 26.4907H20.0819C19.9686 26.4907 19.8599 26.4457 19.7797 26.3655C19.6996 26.2854 19.6546 26.1767 19.6546 26.0634V23.4998C19.6546 23.3865 19.6996 23.2778 19.7797 23.1977C19.8599 23.1175 19.9686 23.0725 20.0819 23.0725H23.5001C23.5773 23.0725 23.6532 23.0936 23.7195 23.1333C23.7858 23.173 23.84 23.23 23.8765 23.2981C23.913 23.3662 23.9303 23.443 23.9266 23.5202C23.9229 23.5974 23.8984 23.6721 23.8555 23.7365L22.1465 26.3001C22.1075 26.3587 22.0546 26.4068 21.9926 26.44C21.9306 26.4732 21.8613 26.4907 21.791 26.4907ZM20.5091 25.6361H21.5619L22.7019 23.9271H20.5091V25.6361Z" fill="#212A41"/>
<path d="M18.3727 26.0636H14.9545L16.6636 23.5L18.3727 26.0636Z" fill="#E0E0E0"/>
<path d="M18.3728 26.491H14.9546C14.8773 26.4909 14.8015 26.4699 14.7352 26.4302C14.6689 26.3905 14.6146 26.3335 14.5781 26.2654C14.5416 26.1973 14.5243 26.1205 14.528 26.0433C14.5317 25.9661 14.5563 25.8913 14.5991 25.827L16.3082 23.2634C16.3494 23.2079 16.403 23.1628 16.4647 23.1317C16.5264 23.1007 16.5946 23.0845 16.6637 23.0845C16.7328 23.0845 16.8009 23.1007 16.8627 23.1317C16.9244 23.1628 16.978 23.2079 17.0192 23.2634L18.7283 25.827C18.7711 25.8913 18.7956 25.9661 18.7993 26.0433C18.803 26.1205 18.7857 26.1973 18.7492 26.2654C18.7127 26.3335 18.6585 26.3905 18.5922 26.4302C18.5259 26.4699 18.45 26.4909 18.3728 26.491ZM15.7527 25.6364H17.5746L16.6637 24.2692L15.7527 25.6364Z" fill="#212A41"/>
<path d="M14.9546 26.0636H8.97278L10.6819 23.5H16.6637L14.9546 26.0636Z" fill="#C2C2C2"/>
<path d="M14.9546 26.4907H8.97277C8.89548 26.4907 8.81965 26.4697 8.75336 26.4299C8.68706 26.3902 8.63278 26.3332 8.59631 26.2651C8.55983 26.197 8.54251 26.1202 8.5462 26.043C8.5499 25.9658 8.57446 25.8911 8.61728 25.8267L10.3264 23.2631C10.3653 23.2045 10.4182 23.1564 10.4802 23.1232C10.5422 23.09 10.6115 23.0725 10.6819 23.0725H16.6637C16.741 23.0725 16.8168 23.0936 16.8831 23.1333C16.9494 23.173 17.0037 23.23 17.0401 23.2981C17.0766 23.3662 17.0939 23.443 17.0902 23.5202C17.0865 23.5974 17.062 23.6721 17.0192 23.7365L15.3101 26.3001C15.2711 26.3587 15.2182 26.4068 15.1562 26.44C15.0942 26.4732 15.025 26.4907 14.9546 26.4907ZM9.77091 25.6361H14.7273L15.8672 23.9271H10.9109L9.77091 25.6361Z" fill="#212A41"/>
<path d="M22.6455 46.5727H17.5182L18.3727 31.1909H21.7909L22.6455 46.5727Z" fill="#D32E5E"/>
<path d="M22.6455 46.9998H17.5182C17.46 46.9999 17.4024 46.9881 17.349 46.9651C17.2955 46.9422 17.2473 46.9086 17.2073 46.8663C17.1673 46.8241 17.1363 46.7741 17.1163 46.7195C17.0963 46.6648 17.0877 46.6067 17.0909 46.5486L17.9455 31.1668C17.9516 31.0577 17.9993 30.955 18.0788 30.88C18.1583 30.805 18.2635 30.7633 18.3728 30.7634H21.7909C21.9002 30.7633 22.0054 30.805 22.0849 30.88C22.1644 30.955 22.2121 31.0577 22.2182 31.1668L23.0728 46.5486C23.076 46.6067 23.0674 46.6648 23.0474 46.7195C23.0274 46.7741 22.9964 46.8241 22.9564 46.8663C22.9164 46.9086 22.8682 46.9422 22.8147 46.9651C22.7613 46.9881 22.7037 46.9999 22.6455 46.9998ZM17.9694 46.1452H22.1943L21.3867 31.618H18.777L17.9694 46.1452Z" fill="#212A41"/>
<path d="M21.7909 26.0637H18.3727L16.6636 28.6274L18.3727 31.191H21.7909L23.5 28.6274L21.7909 26.0637Z" fill="#D32E5E"/>
<path d="M21.791 31.618H18.3728C18.3024 31.618 18.2331 31.6006 18.1711 31.5674C18.1091 31.5341 18.0563 31.4861 18.0173 31.4275L16.3082 28.8638C16.2615 28.7937 16.2366 28.7114 16.2366 28.6271C16.2366 28.5429 16.2615 28.4606 16.3082 28.3904L18.0173 25.8268C18.0563 25.7682 18.1091 25.7202 18.1711 25.6869C18.2331 25.6537 18.3024 25.6363 18.3728 25.6362H21.791C21.8613 25.6363 21.9306 25.6537 21.9926 25.6869C22.0546 25.7202 22.1075 25.7682 22.1465 25.8268L23.8555 28.3904C23.9022 28.4606 23.9271 28.5429 23.9271 28.6271C23.9271 28.7114 23.9022 28.7937 23.8555 28.8638L22.1465 31.4275C22.1075 31.4861 22.0546 31.5341 21.9926 31.5674C21.9306 31.6006 21.8613 31.618 21.791 31.618ZM18.6018 30.7635H21.5619L22.9873 28.6271L21.5628 26.4908H18.6018L17.1764 28.6271L18.6018 30.7635Z" fill="#212A41"/>
<path d="M24.3545 8.9729H33.7545V14.1002H24.3545C23.6746 14.1002 23.0225 13.8301 22.5418 13.3493C22.061 12.8685 21.7909 12.2165 21.7909 11.5365C21.7909 10.8566 22.061 10.2045 22.5418 9.72377C23.0225 9.243 23.6746 8.9729 24.3545 8.9729Z" fill="#6C696F"/>
<path d="M33.7546 14.5272H24.3546C23.5613 14.5272 22.8006 14.2121 22.2397 13.6512C21.6788 13.0903 21.3636 12.3296 21.3636 11.5363C21.3636 10.7431 21.6788 9.98233 22.2397 9.42143C22.8006 8.86052 23.5613 8.54541 24.3546 8.54541H33.7546C33.8679 8.54541 33.9766 8.59043 34.0567 8.67056C34.1368 8.75068 34.1818 8.85936 34.1818 8.97268V14.1C34.1818 14.2133 34.1368 14.322 34.0567 14.4021C33.9766 14.4822 33.8679 14.5272 33.7546 14.5272ZM24.3546 9.39996C23.788 9.39996 23.2446 9.62504 22.8439 10.0257C22.4433 10.4263 22.2182 10.9697 22.2182 11.5363C22.2182 12.1029 22.4433 12.6463 22.8439 13.047C23.2446 13.4476 23.788 13.6727 24.3546 13.6727H33.3273V9.39996H24.3546Z" fill="#212A41"/>
<path d="M33.7546 14.1002C35.1704 14.1002 36.3182 12.9524 36.3182 11.5365C36.3182 10.1207 35.1704 8.9729 33.7546 8.9729C32.3387 8.9729 31.1909 10.1207 31.1909 11.5365C31.1909 12.9524 32.3387 14.1002 33.7546 14.1002Z" fill="#B7C0D7"/>
<path d="M33.7546 14.5272C33.163 14.5272 32.5848 14.3518 32.0929 14.0232C31.6011 13.6945 31.2177 13.2274 30.9913 12.6809C30.765 12.1344 30.7057 11.533 30.8211 10.9528C30.9365 10.3726 31.2214 9.83972 31.6397 9.42143C32.058 9.00314 32.5909 8.71829 33.1711 8.60288C33.7513 8.48748 34.3526 8.54671 34.8992 8.77308C35.4457 8.99946 35.9128 9.38281 36.2414 9.87466C36.5701 10.3665 36.7455 10.9448 36.7455 11.5363C36.7455 12.3296 36.4304 13.0903 35.8695 13.6512C35.3086 14.2121 34.5478 14.5272 33.7546 14.5272ZM33.7546 9.39996C33.332 9.39996 32.919 9.52525 32.5677 9.76C32.2164 9.99475 31.9425 10.3284 31.7808 10.7188C31.6191 11.1091 31.5768 11.5387 31.6593 11.9531C31.7417 12.3675 31.9452 12.7482 32.2439 13.047C32.5427 13.3457 32.9234 13.5492 33.3378 13.6316C33.7522 13.7141 34.1818 13.6718 34.5721 13.5101C34.9625 13.3484 35.2962 13.0745 35.5309 12.7232C35.7657 12.3719 35.8909 11.9589 35.8909 11.5363C35.8909 10.9697 35.6659 10.4263 35.2652 10.0257C34.8646 9.62504 34.3212 9.39996 33.7546 9.39996Z" fill="#212A41"/>
<path d="M17.5182 8.9729H26.9182V14.1002H17.5182C16.8382 14.1002 16.1862 13.8301 15.7054 13.3493C15.2246 12.8685 14.9545 12.2165 14.9545 11.5365C14.9545 10.8566 15.2246 10.2045 15.7054 9.72377C16.1862 9.243 16.8382 8.9729 17.5182 8.9729Z" fill="#6C696F"/>
<path d="M26.9181 14.5272H17.5181C16.7249 14.5272 15.9641 14.2121 15.4032 13.6512C14.8423 13.0903 14.5272 12.3296 14.5272 11.5363C14.5272 10.7431 14.8423 9.98233 15.4032 9.42143C15.9641 8.86052 16.7249 8.54541 17.5181 8.54541H26.9181C27.0315 8.54541 27.1401 8.59043 27.2203 8.67056C27.3004 8.75068 27.3454 8.85936 27.3454 8.97268V14.1C27.3454 14.2133 27.3004 14.322 27.2203 14.4021C27.1401 14.4822 27.0315 14.5272 26.9181 14.5272ZM17.5181 9.39996C16.9515 9.39996 16.4081 9.62504 16.0075 10.0257C15.6068 10.4263 15.3818 10.9697 15.3818 11.5363C15.3818 12.1029 15.6068 12.6463 16.0075 13.047C16.4081 13.4476 16.9515 13.6727 17.5181 13.6727H26.4909V9.39996H17.5181Z" fill="#212A41"/>
<path d="M26.9182 14.1002C28.334 14.1002 29.4818 12.9524 29.4818 11.5365C29.4818 10.1207 28.334 8.9729 26.9182 8.9729C25.5023 8.9729 24.3546 10.1207 24.3546 11.5365C24.3546 12.9524 25.5023 14.1002 26.9182 14.1002Z" fill="#B7C0D7"/>
<path d="M26.9182 14.5272C26.3266 14.5272 25.7483 14.3518 25.2565 14.0232C24.7646 13.6945 24.3813 13.2274 24.1549 12.6809C23.9285 12.1344 23.8693 11.533 23.9847 10.9528C24.1001 10.3726 24.385 9.83972 24.8033 9.42143C25.2216 9.00314 25.7545 8.71829 26.3347 8.60288C26.9148 8.48748 27.5162 8.54671 28.0627 8.77308C28.6092 8.99946 29.0764 9.38281 29.405 9.87466C29.7337 10.3665 29.9091 10.9448 29.9091 11.5363C29.9091 12.3296 29.594 13.0903 29.033 13.6512C28.4721 14.2121 27.7114 14.5272 26.9182 14.5272ZM26.9182 9.39996C26.4956 9.39996 26.0826 9.52525 25.7313 9.76C25.3799 9.99475 25.1061 10.3284 24.9444 10.7188C24.7827 11.1091 24.7404 11.5387 24.8228 11.9531C24.9053 12.3675 25.1087 12.7482 25.4075 13.047C25.7063 13.3457 26.087 13.5492 26.5014 13.6316C26.9158 13.7141 27.3453 13.6718 27.7357 13.5101C28.1261 13.3484 28.4597 13.0745 28.6945 12.7232C28.9292 12.3719 29.0545 11.9589 29.0545 11.5363C29.0545 10.9697 28.8294 10.4263 28.4288 10.0257C28.0282 9.62504 27.4848 9.39996 26.9182 9.39996Z" fill="#212A41"/>
<path d="M24.3545 8.9729H16.6636C15.9837 8.9729 15.3316 9.243 14.8508 9.72377C14.3701 10.2045 14.1 10.8566 14.1 11.5365V32.9002H17.5182C18.4247 32.9002 19.2941 32.54 19.9352 31.899C20.5762 31.258 20.9363 30.3886 20.9363 29.482V11.5365C20.9363 10.8566 21.2064 10.2045 21.6872 9.72377C22.168 9.243 22.8201 8.9729 23.5 8.9729H24.3545Z" fill="#E0C8A4"/>
<path d="M17.5182 33.3272H14.1C13.9867 33.3272 13.878 33.2822 13.7979 33.2021C13.7177 33.122 13.6727 33.0133 13.6727 32.9V11.5363C13.6727 10.7431 13.9878 9.98233 14.5487 9.42143C15.1097 8.86052 15.8704 8.54541 16.6636 8.54541H24.3545C24.4679 8.54541 24.5765 8.59043 24.6567 8.67056C24.7368 8.75068 24.7818 8.85936 24.7818 8.97268C24.7818 9.086 24.7368 9.19468 24.6567 9.27481C24.5765 9.35494 24.4679 9.39996 24.3545 9.39996H23.5C22.9334 9.39996 22.39 9.62504 21.9894 10.0257C21.5887 10.4263 21.3636 10.9697 21.3636 11.5363V29.4818C21.3625 30.5013 20.957 31.4788 20.2361 32.1997C19.5152 32.9206 18.5377 33.3261 17.5182 33.3272ZM14.5273 32.4727H17.5182C18.3114 32.4727 19.0722 32.1576 19.6331 31.5967C20.194 31.0358 20.5091 30.275 20.5091 29.4818V11.5363C20.5087 11.1382 20.5882 10.744 20.7427 10.377C20.8973 10.0101 21.1238 9.67788 21.4089 9.39996H16.6636C16.097 9.39996 15.5536 9.62504 15.153 10.0257C14.7524 10.4263 14.5273 10.9697 14.5273 11.5363V32.4727Z" fill="#212A41"/>
<path d="M3.84549 26.0637H20.9364V31.191C20.9364 32.0976 20.5763 32.967 19.9352 33.608C19.2942 34.249 18.4248 34.6092 17.5182 34.6092H3.84549C2.93893 34.6092 2.0695 34.249 1.42847 33.608C0.787436 32.967 0.427307 32.0976 0.427307 31.191V29.4819C0.427307 28.5753 0.787436 27.7059 1.42847 27.0649C2.0695 26.4239 2.93893 26.0637 3.84549 26.0637Z" fill="#C2C2C2"/>
<path d="M17.5182 35.0362H3.84546C2.82592 35.0351 1.84847 34.6296 1.12756 33.9087C0.406639 33.1878 0.00113093 32.2103 0 31.1908V29.4817C0.00113093 28.4622 0.406639 27.4847 1.12756 26.7638C1.84847 26.0429 2.82592 25.6374 3.84546 25.6362H20.9364C21.0497 25.6362 21.1584 25.6812 21.2385 25.7614C21.3186 25.8415 21.3636 25.9502 21.3636 26.0635V31.1908C21.3625 32.2103 20.957 33.1878 20.2361 33.9087C19.5152 34.6296 18.5377 35.0351 17.5182 35.0362ZM3.84546 26.4908C3.05222 26.4908 2.29147 26.8059 1.73056 27.3668C1.16966 27.9277 0.854546 28.6884 0.854546 29.4817V31.1908C0.854546 31.984 1.16966 32.7448 1.73056 33.3057C2.29147 33.8666 3.05222 34.1817 3.84546 34.1817H17.5182C18.3114 34.1817 19.0722 33.8666 19.6331 33.3057C20.194 32.7448 20.5091 31.984 20.5091 31.1908V26.4908H3.84546Z" fill="#212A41"/>
<path d="M17.5182 33.3273C17.4049 33.3273 17.2962 33.2823 17.2161 33.2021C17.136 33.122 17.0909 33.0133 17.0909 32.9C17.0909 32.7867 17.136 32.678 17.2161 32.5979C17.2962 32.5177 17.4049 32.4727 17.5182 32.4727C17.8582 32.4727 18.1842 32.3377 18.4246 32.0973C18.665 31.8569 18.8 31.5309 18.8 31.1909V27.7727C18.8 27.6594 18.845 27.5507 18.9252 27.4706C19.0053 27.3905 19.114 27.3455 19.2273 27.3455C19.3406 27.3455 19.4493 27.3905 19.5294 27.4706C19.6096 27.5507 19.6546 27.6594 19.6546 27.7727V31.1909C19.6546 31.7575 19.4295 32.3009 19.0289 32.7016C18.6282 33.1022 18.0848 33.3273 17.5182 33.3273Z" fill="#A4A4A4"/>
<path d="M31.1909 33.3273C31.0776 33.3273 30.9689 33.2823 30.8888 33.2021C30.8087 33.122 30.7637 33.0133 30.7637 32.9C30.7637 32.7867 30.8087 32.678 30.8888 32.5979C30.9689 32.5177 31.0776 32.4727 31.1909 32.4727C31.5309 32.4727 31.8569 32.3377 32.0973 32.0973C32.3377 31.8569 32.4728 31.5309 32.4728 31.1909V27.7727C32.4728 27.6594 32.5178 27.5507 32.5979 27.4706C32.678 27.3905 32.7867 27.3455 32.9 27.3455C33.0134 27.3455 33.122 27.3905 33.2022 27.4706C33.2823 27.5507 33.3273 27.6594 33.3273 27.7727V31.1909C33.3273 31.7575 33.1022 32.3009 32.7016 32.7016C32.3009 33.1022 31.7575 33.3273 31.1909 33.3273Z" fill="#C2C2C2"/>
<path d="M15.8091 24.7819C15.6958 24.7819 15.5871 24.7368 15.507 24.6567C15.4269 24.5766 15.3818 24.4679 15.3818 24.3546V11.5364C15.3818 11.4231 15.4269 11.3144 15.507 11.2343C15.5871 11.1541 15.6958 11.1091 15.8091 11.1091C15.9224 11.1091 16.0311 11.1541 16.1112 11.2343C16.1914 11.3144 16.2364 11.4231 16.2364 11.5364V24.3546C16.2364 24.4679 16.1914 24.5766 16.1112 24.6567C16.0311 24.7368 15.9224 24.7819 15.8091 24.7819Z" fill="#FEE6C2"/>
<path d="M32.9001 24.7818C32.7867 24.7818 32.6781 24.7368 32.5979 24.6567C32.5178 24.5766 32.4728 24.4679 32.4728 24.3546V15.8091C32.4728 15.6958 32.5178 15.5871 32.5979 15.507C32.6781 15.4269 32.7867 15.3818 32.9001 15.3818C33.0134 15.3818 33.122 15.4269 33.2022 15.507C33.2823 15.5871 33.3273 15.6958 33.3273 15.8091V24.3546C33.3273 24.4679 33.2823 24.5766 33.2022 24.6567C33.122 24.7368 33.0134 24.7818 32.9001 24.7818Z" fill="#C2AA86"/>
<path d="M5.55453 45.2909C5.44121 45.2909 5.33253 45.2459 5.2524 45.1657C5.17227 45.0856 5.12726 44.9769 5.12726 44.8636V36.3181C5.12726 36.2048 5.17227 36.0961 5.2524 36.016C5.33253 35.9359 5.44121 35.8909 5.55453 35.8909C5.66785 35.8909 5.77653 35.9359 5.85666 36.016C5.93679 36.0961 5.9818 36.2048 5.9818 36.3181V44.8636C5.9818 44.9769 5.93679 45.0856 5.85666 45.1657C5.77653 45.2459 5.66785 45.2909 5.55453 45.2909Z" fill="#E0E0E0"/>
<path d="M10.6819 45.2909C10.5685 45.2909 10.4599 45.2459 10.3797 45.1657C10.2996 45.0856 10.2546 44.9769 10.2546 44.8636V36.3181C10.2546 36.2048 10.2996 36.0961 10.3797 36.016C10.4599 35.9359 10.5685 35.8909 10.6819 35.8909C10.7952 35.8909 10.9038 35.9359 10.984 36.016C11.0641 36.0961 11.1091 36.2048 11.1091 36.3181V44.8636C11.1091 44.9769 11.0641 45.0856 10.984 45.1657C10.9038 45.2459 10.7952 45.2909 10.6819 45.2909Z" fill="#FEFEFE"/>
<path d="M44.009 26.0637H32.0454C31.1015 26.0637 30.3363 26.8289 30.3363 27.7728V39.7365C30.3363 40.6804 31.1015 41.4455 32.0454 41.4455H44.009C44.9529 41.4455 45.7181 40.6804 45.7181 39.7365V27.7728C45.7181 26.8289 44.9529 26.0637 44.009 26.0637Z" fill="#BED38E"/>
<path d="M44.0091 41.8726H32.0454C31.4788 41.8726 30.9354 41.6475 30.5348 41.2469C30.1341 40.8462 29.9091 40.3028 29.9091 39.7362V27.7726C29.9091 27.206 30.1341 26.6626 30.5348 26.262C30.9354 25.8613 31.4788 25.6362 32.0454 25.6362H44.0091C44.5757 25.6362 45.1191 25.8613 45.5197 26.262C45.9203 26.6626 46.1454 27.206 46.1454 27.7726V39.7362C46.1454 40.3028 45.9203 40.8462 45.5197 41.2469C45.1191 41.6475 44.5757 41.8726 44.0091 41.8726ZM32.0454 26.4908C31.7055 26.4908 31.3794 26.6258 31.139 26.8662C30.8987 27.1066 30.7636 27.4326 30.7636 27.7726V39.7362C30.7636 40.0762 30.8987 40.4022 31.139 40.6426C31.3794 40.883 31.7055 41.0181 32.0454 41.0181H44.0091C44.349 41.0181 44.6751 40.883 44.9154 40.6426C45.1558 40.4022 45.2909 40.0762 45.2909 39.7362V27.7726C45.2909 27.4326 45.1558 27.1066 44.9154 26.8662C44.6751 26.6258 44.349 26.4908 44.0091 26.4908H32.0454Z" fill="#212A41"/>
<path d="M46.5728 26.0637H34.6091C33.6652 26.0637 32.9 26.8289 32.9 27.7728V39.7365C32.9 40.6804 33.6652 41.4455 34.6091 41.4455H46.5728C47.5167 41.4455 48.2818 40.6804 48.2818 39.7365V27.7728C48.2818 26.8289 47.5167 26.0637 46.5728 26.0637Z" fill="#BED38E"/>
<path d="M46.5728 41.8726H34.6091C34.0425 41.8726 33.4991 41.6475 33.0985 41.2469C32.6979 40.8462 32.4728 40.3028 32.4728 39.7362V27.7726C32.4728 27.206 32.6979 26.6626 33.0985 26.262C33.4991 25.8613 34.0425 25.6362 34.6091 25.6362H46.5728C47.1394 25.6362 47.6828 25.8613 48.0834 26.262C48.4841 26.6626 48.7091 27.206 48.7091 27.7726V39.7362C48.7091 40.3028 48.4841 40.8462 48.0834 41.2469C47.6828 41.6475 47.1394 41.8726 46.5728 41.8726ZM34.6091 26.4908C34.2692 26.4908 33.9431 26.6258 33.7028 26.8662C33.4624 27.1066 33.3273 27.4326 33.3273 27.7726V39.7362C33.3273 40.0762 33.4624 40.4022 33.7028 40.6426C33.9431 40.883 34.2692 41.0181 34.6091 41.0181H46.5728C46.9127 41.0181 47.2388 40.883 47.4792 40.6426C47.7196 40.4022 47.8546 40.0762 47.8546 39.7362V27.7726C47.8546 27.4326 47.7196 27.1066 47.4792 26.8662C47.2388 26.6258 46.9127 26.4908 46.5728 26.4908H34.6091Z" fill="#212A41"/>
<path d="M34.6092 40.1636C34.4958 40.1636 34.3872 40.1186 34.307 40.0385C34.2269 39.9584 34.1819 39.8497 34.1819 39.7364V27.7727C34.1819 27.6594 34.2269 27.5507 34.307 27.4706C34.3872 27.3905 34.4958 27.3455 34.6092 27.3455C34.7225 27.3455 34.8312 27.3905 34.9113 27.4706C34.9914 27.5507 35.0364 27.6594 35.0364 27.7727V39.7364C35.0364 39.8497 34.9914 39.9584 34.9113 40.0385C34.8312 40.1186 34.7225 40.1636 34.6092 40.1636Z" fill="#DCF1AC"/>
<path d="M46.5727 40.1636C46.4593 40.1636 46.3507 40.1186 46.2705 40.0385C46.1904 39.9584 46.1454 39.8497 46.1454 39.7364V27.7727C46.1454 27.6594 46.1904 27.5507 46.2705 27.4706C46.3507 27.3905 46.4593 27.3455 46.5727 27.3455C46.686 27.3455 46.7947 27.3905 46.8748 27.4706C46.9549 27.5507 46.9999 27.6594 46.9999 27.7727V39.7364C46.9999 39.8497 46.9549 39.9584 46.8748 40.0385C46.7947 40.1186 46.686 40.1636 46.5727 40.1636Z" fill="#A0B570"/>
<path d="M35.4635 38.4552C35.4176 38.4553 35.372 38.4478 35.3285 38.433C35.221 38.3973 35.132 38.3203 35.0812 38.219C35.0304 38.1178 35.0219 38.0004 35.0576 37.8929L36.7667 32.7656C36.8015 32.6609 36.8754 32.5736 36.9731 32.5222C37.0707 32.4707 37.1845 32.459 37.2906 32.4896L42.8784 34.0868L44.4576 29.3474C44.4934 29.2398 44.5706 29.1508 44.672 29.1C44.7734 29.0492 44.8909 29.0407 44.9986 29.0766C45.1062 29.1124 45.1952 29.1895 45.246 29.2909C45.2968 29.3924 45.3053 29.5098 45.2695 29.6175L43.5604 34.7448C43.5256 34.8495 43.4517 34.9368 43.354 34.9882C43.2564 35.0397 43.1426 35.0513 43.0365 35.0208L37.4487 33.4236L35.8694 38.1629C35.8411 38.2481 35.7866 38.3222 35.7137 38.3747C35.6409 38.4271 35.5533 38.4553 35.4635 38.4552Z" fill="#212A41"/>
<path d="M45.7182 31.6183C45.6389 31.6183 45.5612 31.5962 45.4937 31.5546C45.4263 31.5129 45.3717 31.4533 45.3362 31.3825L44.6722 30.0553L43.346 30.7185C43.2448 30.7682 43.128 30.7759 43.0212 30.7399C42.9143 30.704 42.826 30.6272 42.7755 30.5264C42.725 30.4256 42.7164 30.309 42.7515 30.2018C42.7867 30.0947 42.8627 30.0058 42.9631 29.9545L44.6722 29.1C44.7735 29.0492 44.8908 29.0408 44.9984 29.0765C45.1059 29.1122 45.1948 29.1892 45.2456 29.2905L46.1002 30.9996C46.1328 31.0648 46.1482 31.1372 46.145 31.21C46.1418 31.2827 46.12 31.3535 46.0817 31.4155C46.0434 31.4775 45.9899 31.5287 45.9263 31.5642C45.8627 31.5997 45.791 31.6183 45.7182 31.6183Z" fill="#212A41"/>
</svg>
