<svg width="42" height="47" viewBox="0 0 42 47" fill="none" xmlns="http://www.w3.org/2000/svg">
<path d="M33.4526 44.4969C33.4194 44.3307 31.4007 34.1891 31.3785 34.0849C31.1361 32.911 30.4792 32.0117 29.515 31.4324C28.9371 31.0837 28.6089 31.0282 28.2341 30.913C28.4975 31.0051 23.4031 29.2246 21.3502 28.5071C20.9439 28.3678 20.671 27.9857 20.671 27.5562V25.4482C18.0343 26.7666 15.2694 26.6834 12.8152 25.4857V27.5562C12.8152 27.9857 12.5423 28.3678 12.136 28.5071C11.8467 28.6063 13.1842 28.1477 9.3062 29.4774H9.30354C9.30363 29.4777 9.30381 29.4779 9.30381 29.4779L9.30354 29.4784L5.25502 30.913C5.06812 30.9682 4.69891 31.0771 4.72241 31.0702C3.75928 31.4294 2.92411 32.1115 2.45613 33.0654C2.13218 33.7225 2.22829 33.4917 0.656264 41.383C0.07418 44.3972 -0.0543359 44.6168 0.0184591 45.2902C0.221055 47.1726 2.15724 46.9762 2.20965 46.999C5.9221 46.999 17.1092 46.999 16.7569 46.999C16.7959 46.999 18.469 46.999 18.365 46.999C20.9502 46.999 30.1149 46.999 31.279 46.999C31.2997 46.9921 33.8323 47.1848 33.4526 44.4969Z" fill="#6C7D87"/>
<path d="M2.40074 44.4971L4.47471 33.1392C4.44598 33.2771 4.62865 31.6199 6.18773 30.5825C4.44653 31.1995 4.9862 30.9526 4.45093 31.182C3.44053 31.6384 2.65695 32.4137 2.27057 33.5063C2.11599 33.945 2.21623 33.5593 0.656233 41.3831C0.0741483 44.3973 -0.0542757 44.6172 0.0184275 45.2903C0.221023 47.1727 2.1572 46.9763 2.20962 46.9991C2.4404 46.9991 4.28928 46.9991 4.57413 46.9991C2.90581 46.9992 2.18493 46.0236 2.40074 44.4971Z" fill="#566A75"/>
<path d="M6.48907 46.9992C5.13901 46.9992 3.58397 46.9992 2.20968 46.9992C2.15487 46.9753 -0.0520164 47.197 0.00315355 44.8964C0.0151789 44.4058 0.0765912 44.3851 0.656289 41.3831L0.689795 41.2148H6.48907V46.9992Z" fill="#DD9A5E"/>
<path d="M3.00013 41.2148H0.689783L0.656277 41.383C0.0744681 44.3955 0.0151673 44.405 0.00314189 44.8963C-0.0518445 47.1893 2.16615 46.9801 2.20967 46.9992C2.44044 46.9992 4.28932 46.9992 4.57417 46.9992C3.03758 46.9992 2.33662 46.1908 2.36765 44.8963C2.37132 44.746 2.42732 44.4318 3.00013 41.2148Z" fill="#D18C54"/>
<path d="M12.8152 25.1221C12.8152 31.0022 12.8152 24.4522 12.8153 29.0836H12.8178V29.2251C12.8178 30.1659 13.4187 31.0022 14.3107 31.3009C15.7424 31.7803 17.5805 31.8349 19.1753 31.3009C20.0675 31.0022 20.6683 30.166 20.6683 29.2251V29.0836H20.6708C20.6708 28.162 20.6709 25.615 20.6709 25.1221C18.1258 26.4791 15.256 26.4236 12.8152 25.1221Z" fill="#DD9A5E"/>
<path d="M15.1829 29.8697H15.1799C15.1797 24.9467 15.1798 26.5871 15.1797 26.2433C14.3636 26.0797 13.5678 25.7988 12.8152 25.3975C12.8152 31.2776 12.8152 24.4522 12.8153 29.0836H12.8178V29.2251C12.8178 30.1659 13.4187 31.0022 14.3107 31.3009C14.7519 31.4486 15.2178 31.5554 15.7015 31.6171C15.1002 30.8006 15.1921 29.9322 15.1829 29.8697Z" fill="#D18C54"/>
<path d="M6.48931 38.8945C6.09753 38.8945 5.77991 39.2121 5.77991 39.6039V46.9992C6.27194 46.9992 6.67052 46.9992 7.19863 46.9992V39.6039C7.19872 39.2121 6.8811 38.8945 6.48931 38.8945Z" fill="#566A75"/>
<path d="M39.7083 46.9991H16.743C15.7848 46.9991 15.008 46.2223 15.008 45.2641C15.008 44.715 15.4532 44.2698 16.0023 44.2698H40.4489C40.998 44.2698 41.4432 44.715 41.4432 45.2641C41.4432 46.2223 40.6664 46.9991 39.7083 46.9991Z" fill="#C6C6C6"/>
<path d="M19.4769 45.2641C19.4769 44.715 19.9221 44.2698 20.4712 44.2698H16.0023C15.4532 44.2698 15.008 44.715 15.008 45.2641V45.2642C15.008 46.2224 15.7848 46.9992 16.743 46.9992H21.2117C20.2535 46.9991 19.4769 46.2223 19.4769 45.2641Z" fill="#B7B7B7"/>
<path d="M38.2041 29.0837H18.2473C17.6231 29.0837 17.1124 29.5945 17.1124 30.2187V43.135C17.1124 43.7592 17.6231 44.27 18.2473 44.27H38.2041C38.8283 44.27 39.3391 43.7592 39.3391 43.135V30.2187C39.3391 29.5945 38.8283 29.0837 38.2041 29.0837Z" fill="#EDEDED"/>
<path d="M19.4769 43.135V30.2187C19.4769 29.5945 19.9876 29.0837 20.6118 29.0837H18.2473C17.6231 29.0837 17.1124 29.5945 17.1124 30.2187V43.135C17.1124 43.7592 17.6231 44.27 18.2473 44.27H20.6118C19.9876 44.27 19.4769 43.7592 19.4769 43.135Z" fill="#DADADA"/>
<path d="M28.2262 38.3162C29.1316 38.3162 29.8656 37.5822 29.8656 36.6768C29.8656 35.7713 29.1316 35.0374 28.2262 35.0374C27.3208 35.0374 26.5868 35.7713 26.5868 36.6768C26.5868 37.5822 27.3208 38.3162 28.2262 38.3162Z" fill="#DADADA"/>
<path d="M28.2264 35.0386C26.9764 35.0366 26.1712 36.3971 26.8058 37.4963C27.4408 38.5961 29.0214 38.5781 29.6447 37.4951C28.3836 37.4933 27.5963 36.1334 28.2264 35.0386Z" fill="#C6C6C6"/>
<path d="M16.5295 0.0111197C10.4196 0.0344361 5.26123 5.02231 5.26123 11.3592V15.6599H27.9607C27.9607 11.5844 27.9607 12.8721 27.9607 9.22597C27.9607 4.83138 25.257 3.81904 25.257 3.81904C21.8947 -0.326785 16.534 0.0110279 16.534 0.0110279" fill="#4C4846"/>
<path d="M18.0625 0.0788998C11.1379 -0.70936 5.50284 4.5171 5.27059 10.912C5.25269 11.3719 5.26472 11.1998 5.26095 15.66H7.96465V11.3593C7.96465 5.48868 12.4085 0.699447 18.0625 0.0788998Z" fill="#3D3938"/>
<path d="M8.05651 14.3095C6.63293 13.8022 5.08752 14.7456 5.08752 16.122C5.08752 17.498 6.63274 18.4419 8.05651 17.9345V14.3095Z" fill="#DD9A5E"/>
<path d="M25.165 14.3095C26.5886 13.8022 28.134 14.7456 28.134 16.122C28.134 17.498 26.5887 18.4419 25.165 17.9345V14.3095Z" fill="#DD9A5E"/>
<path d="M5.29532 15.2886C4.46373 16.8672 6.21458 18.5909 8.05639 17.9346V16.2677C6.98227 16.6503 5.7813 16.2113 5.29532 15.2886Z" fill="#D18C54"/>
<path d="M25.1647 16.2677V17.9346C27.0065 18.5909 28.7573 16.8673 27.9258 15.2886C27.5781 15.949 26.2392 16.6505 25.1647 16.2677Z" fill="#D18C54"/>
<path d="M24.8666 10.7178C25.0871 10.7391 25.2567 10.9221 25.2567 11.1436C25.2567 18.423 25.2615 17.8734 25.2445 18.2118C25.1323 20.4259 24.1855 22.4588 22.6454 23.9615C17.2486 29.2234 8.24291 25.4917 7.97202 18.1107C7.95935 17.7853 7.96467 14.015 7.96467 14.0256C7.96467 12.3304 9.46913 11.037 11.147 11.2792C13.7896 11.6607 17.6468 11.5125 21.0124 8.63559C21.3582 8.34 21.8831 8.43547 22.104 8.83323C22.521 9.58422 23.3502 10.5715 24.8666 10.7178Z" fill="#EDAE6B"/>
<path d="M10.3376 18.1106C10.3268 17.8316 10.3291 12.7243 10.33 11.2815C9.01024 11.4795 7.96467 12.6125 7.96467 14.0256C7.96467 14.0149 7.95935 17.7852 7.97202 18.1106C8.17167 23.5527 13.1198 27.0101 17.8688 26.3423C13.9695 25.8032 10.5041 22.6465 10.3376 18.1106Z" fill="#DD9A5E"/>
</svg>
